id;step_execution_id;version;step_name;job_execution_id;start_time;end_time;status;commit_count;read_count;filter_count;write_count;read_skip_count;write_skip_count;process_skip_count;rollback_count;exit_code;exit_message;last_updated
1;35326;81690;utilize Michigan;34105;2020-04-10T19:07:06;2020-04-11T02:18:45;compress L;24509;52589;61340;62617;75324;68437;42505;6285;Stream;Chicken Buckinghamshire;2020-04-10T21:08:25
2;67857;31990;purple Island;8362;2020-04-10T17:51:07;2020-04-11T05:53:13;bluetooth;88957;26303;31908;39373;83451;3696;73410;22839;mindshare;online protocol;2020-04-11T07:44:13
3;28572;8508;USB;94551;2020-04-11T07:43:35;2020-04-10T18:01:33;Netherland;19733;2524;34014;30710;25781;51545;15934;32489;Identity Checking Account Factors;interactive;2020-04-10T19:09:25
4;60353;59802;neural;71868;2020-04-11T02:26:58;2020-04-11T03:07:21;SSL quanti;77987;6246;66270;34467;48289;92412;60102;93649;backing up;internet solution Intelligent Granite Towels holistic;2020-04-11T13:04:26
5;47788;30356;application architectures Extensions;97972;2020-04-11T06:51:03;2020-04-10T13:59:31;firmware p;75253;58623;78625;70675;88889;33237;49;2259;impactful Human;transmit;2020-04-10T14:38:51
6;95379;24177;backing up Georgia Global;32346;2020-04-11T05:26:57;2020-04-11T00:55:49;Egyptian P;23496;792;34646;92184;12729;37625;44430;36899;Iraqi Dinar e-services;Rustic Steel Chips;2020-04-11T02:23:32
7;79525;38978;Handmade Agent;67194;2020-04-10T16:59:11;2020-04-11T12:43:50;parse;86956;83286;34291;90712;20071;65182;59988;12343;back up Direct Salad;front-end;2020-04-10T18:38:48
8;86437;17174;Technician Cambridgeshire;68121;2020-04-10T19:19:54;2020-04-11T02:22:48;Intuitive ;48083;32444;54741;12411;64057;24781;11522;87471;frictionless;program Accountability intuitive;2020-04-10T15:30:06
9;59126;98822;approach Consultant;48581;2020-04-10T19:46:56;2020-04-11T03:04:45;archive Ge;14898;31776;41653;38271;69736;58416;69216;15659;granular;National Innovative;2020-04-11T00:40:25
10;56051;95532;Frozen;43342;2020-04-11T09:51:24;2020-04-10T16:46:14;Freeway mi;15114;34745;63233;80455;648;47131;99463;45454;primary;artificial intelligence mobile;2020-04-11T03:21:05
