{
    "name": "BatchStepExecutionContext",
    "fields": [
        {
            "fieldName": "stepExecutionId",
            "fieldType": "Long",
            "fieldValidateRules": [
                "required"
            ]
        },
        {
            "fieldName": "shortContext",
            "fieldType": "String",
            "fieldValidateRules": [
                "required",
                "maxlength"
            ],
            "fieldValidateRulesMaxlength": "2500"
        },
        {
            "fieldName": "serializedContext",
            "fieldType": "byte[]",
            "fieldTypeBlobContent": "text"
        }
    ],
    "relationships": [],
    "changelogDate": "20200411130900",
    "entityTableName": "batch_step_execution_context",
    "dto": "mapstruct",
    "pagination": "no",
    "service": "serviceImpl",
    "jpaMetamodelFiltering": false,
    "fluentMethods": true,
    "readOnly": false,
    "embedded": false,
    "clientRootFolder": "",
    "applications": "*"
}